{
  "version": "6.3.2",
  "objects": [
    {
      "id": "AWBcpcqhmhRvefO8Fqke",
      "type": "visualization",
      "updated_at": "2018-08-11T11:46:56.150Z",
      "version": 2,
      "attributes": {
        "visState": "{\n  \"title\": \"web: hits per site top 8\",\n  \"type\": \"histogram\",\n  \"params\": {\n    \"addLegend\": true,\n    \"addTimeMarker\": false,\n    \"addTooltip\": true,\n    \"categoryAxes\": [\n      {\n        \"id\": \"CategoryAxis-1\",\n        \"labels\": {\n          \"show\": true,\n          \"truncate\": 100\n        },\n        \"position\": \"bottom\",\n        \"scale\": {\n          \"type\": \"linear\"\n        },\n        \"show\": true,\n        \"style\": {},\n        \"title\": {\n          \"text\": \"@timestamp per 5 minutes\"\n        },\n        \"type\": \"category\"\n      }\n    ],\n    \"grid\": {\n      \"categoryLines\": false,\n      \"style\": {\n        \"color\": \"#eee\"\n      },\n      \"valueAxis\": \"ValueAxis-1\"\n    },\n    \"legendPosition\": \"right\",\n    \"seriesParams\": [\n      {\n        \"data\": {\n          \"id\": \"1\",\n          \"label\": \"Count\"\n        },\n        \"drawLinesBetweenPoints\": true,\n        \"mode\": \"stacked\",\n        \"show\": \"true\",\n        \"showCircles\": true,\n        \"type\": \"histogram\",\n        \"valueAxis\": \"ValueAxis-1\"\n      }\n    ],\n    \"times\": [],\n    \"type\": \"histogram\",\n    \"valueAxes\": [\n      {\n        \"id\": \"ValueAxis-1\",\n        \"labels\": {\n          \"filter\": false,\n          \"rotate\": 0,\n          \"show\": true,\n          \"truncate\": 100\n        },\n        \"name\": \"LeftAxis-1\",\n        \"position\": \"left\",\n        \"scale\": {\n          \"mode\": \"normal\",\n          \"type\": \"linear\"\n        },\n        \"show\": true,\n        \"style\": {},\n        \"title\": {\n          \"text\": \"Count\"\n        },\n        \"type\": \"value\"\n      }\n    ]\n  },\n  \"aggs\": [\n    {\n      \"id\": \"1\",\n      \"enabled\": true,\n      \"type\": \"count\",\n      \"schema\": \"metric\",\n      \"params\": {}\n    },\n    {\n      \"id\": \"2\",\n      \"enabled\": true,\n      \"type\": \"terms\",\n      \"schema\": \"group\",\n      \"params\": {\n        \"field\": \"vhost\",\n        \"otherBucket\": false,\n        \"otherBucketLabel\": \"Other\",\n        \"missingBucket\": false,\n        \"missingBucketLabel\": \"Missing\",\n        \"size\": 8,\n        \"order\": \"desc\",\n        \"orderBy\": \"1\"\n      }\n    },\n    {\n      \"id\": \"3\",\n      \"enabled\": true,\n      \"type\": \"date_histogram\",\n      \"schema\": \"segment\",\n      \"params\": {\n        \"field\": \"@timestamp\",\n        \"interval\": \"auto\",\n        \"customInterval\": \"2h\",\n        \"min_doc_count\": 1,\n        \"extended_bounds\": {},\n        \"customLabel\": \"time\"\n      }\n    }\n  ]\n}",
        "description": "",
        "title": "web: hits per site top 8",
        "uiStateJSON": "{}",
        "version": 1,
        "kibanaSavedObjectMeta": {
          "searchSourceJSON": "{\n  \"index\": \"da92a2d0-55fd-11e8-b43b-036ee7010221\",\n  \"query\": {\n    \"query\": {\n      \"match_all\": {}\n    },\n    \"language\": \"lucene\"\n  },\n  \"filter\": []\n}"
        }
      }
    },
    {
      "id": "AWBcn9temhRvefO8Fkhj",
      "type": "visualization",
      "updated_at": "2018-08-11T11:46:40.007Z",
      "version": 2,
      "attributes": {
        "visState": "{\n  \"title\": \"web: bytes per site\",\n  \"type\": \"histogram\",\n  \"params\": {\n    \"addLegend\": true,\n    \"addTimeMarker\": false,\n    \"addTooltip\": true,\n    \"categoryAxes\": [\n      {\n        \"id\": \"CategoryAxis-1\",\n        \"labels\": {\n          \"show\": true,\n          \"truncate\": 100\n        },\n        \"position\": \"bottom\",\n        \"scale\": {\n          \"type\": \"linear\"\n        },\n        \"show\": true,\n        \"style\": {},\n        \"title\": {\n          \"text\": \"@timestamp per 5 minutes\"\n        },\n        \"type\": \"category\"\n      }\n    ],\n    \"grid\": {\n      \"categoryLines\": false,\n      \"style\": {\n        \"color\": \"#eee\"\n      },\n      \"valueAxis\": \"ValueAxis-1\"\n    },\n    \"legendPosition\": \"right\",\n    \"seriesParams\": [\n      {\n        \"data\": {\n          \"id\": \"1\",\n          \"label\": \"Count\"\n        },\n        \"drawLinesBetweenPoints\": true,\n        \"mode\": \"stacked\",\n        \"show\": \"true\",\n        \"showCircles\": true,\n        \"type\": \"histogram\",\n        \"valueAxis\": \"ValueAxis-1\"\n      }\n    ],\n    \"times\": [],\n    \"type\": \"histogram\",\n    \"valueAxes\": [\n      {\n        \"id\": \"ValueAxis-1\",\n        \"labels\": {\n          \"filter\": false,\n          \"rotate\": 75,\n          \"show\": true,\n          \"truncate\": 100\n        },\n        \"name\": \"LeftAxis-1\",\n        \"position\": \"left\",\n        \"scale\": {\n          \"mode\": \"normal\",\n          \"type\": \"linear\",\n          \"defaultYExtents\": false,\n          \"setYExtents\": false\n        },\n        \"show\": true,\n        \"style\": {},\n        \"title\": {\n          \"text\": \"Count\"\n        },\n        \"type\": \"value\"\n      }\n    ]\n  },\n  \"aggs\": [\n    {\n      \"id\": \"1\",\n      \"enabled\": true,\n      \"type\": \"count\",\n      \"schema\": \"metric\",\n      \"params\": {}\n    },\n    {\n      \"id\": \"2\",\n      \"enabled\": true,\n      \"type\": \"terms\",\n      \"schema\": \"group\",\n      \"params\": {\n        \"field\": \"vhost\",\n        \"otherBucket\": false,\n        \"otherBucketLabel\": \"Other\",\n        \"missingBucket\": false,\n        \"missingBucketLabel\": \"Missing\",\n        \"size\": 5,\n        \"order\": \"desc\",\n        \"orderBy\": \"1\"\n      }\n    },\n    {\n      \"id\": \"3\",\n      \"enabled\": true,\n      \"type\": \"date_histogram\",\n      \"schema\": \"segment\",\n      \"params\": {\n        \"field\": \"@timestamp\",\n        \"interval\": \"auto\",\n        \"customInterval\": \"2h\",\n        \"min_doc_count\": 1,\n        \"extended_bounds\": {},\n        \"customLabel\": \"time\"\n      }\n    }\n  ]\n}",
        "description": "",
        "title": "web: bytes per site",
        "uiStateJSON": "{}",
        "version": 1,
        "kibanaSavedObjectMeta": {
          "searchSourceJSON": "{\n  \"index\": \"da92a2d0-55fd-11e8-b43b-036ee7010221\",\n  \"query\": {\n    \"query\": {\n      \"match_all\": {}\n    },\n    \"language\": \"lucene\"\n  },\n  \"filter\": []\n}"
        }
      }
    },
    {
      "id": "AWBh8jIzmhRvefO8gLxW",
      "type": "visualization",
      "updated_at": "2018-08-11T11:47:07.483Z",
      "version": 2,
      "attributes": {
        "visState": "{\n  \"title\": \"web: host piechart\",\n  \"type\": \"pie\",\n  \"params\": {\n    \"addTooltip\": true,\n    \"addLegend\": true,\n    \"legendPosition\": \"right\",\n    \"isDonut\": false,\n    \"type\": \"pie\"\n  },\n  \"aggs\": [\n    {\n      \"id\": \"1\",\n      \"enabled\": true,\n      \"type\": \"count\",\n      \"schema\": \"metric\",\n      \"params\": {}\n    },\n    {\n      \"id\": \"2\",\n      \"enabled\": true,\n      \"type\": \"terms\",\n      \"schema\": \"segment\",\n      \"params\": {\n        \"field\": \"host\",\n        \"size\": 7,\n        \"order\": \"desc\",\n        \"orderBy\": \"1\",\n        \"customLabel\": \"host\"\n      }\n    }\n  ],\n  \"listeners\": {}\n}",
        "description": "",
        "title": "web: host piechart",
        "uiStateJSON": "{}",
        "version": 1,
        "kibanaSavedObjectMeta": {
          "searchSourceJSON": "{\n  \"index\": \"da92a2d0-55fd-11e8-b43b-036ee7010221\",\n  \"query\": {\n    \"query\": {\n      \"match_all\": {}\n    },\n    \"language\": \"lucene\"\n  },\n  \"filter\": []\n}"
        }
      }
    },
    {
      "id": "6ddaf180-5614-11e8-b43b-036ee7010221",
      "type": "visualization",
      "updated_at": "2018-08-11T11:48:12.753Z",
      "version": 2,
      "attributes": {
        "visState": "{\n  \"title\": \"web: requests per backend\",\n  \"type\": \"line\",\n  \"params\": {\n    \"type\": \"line\",\n    \"grid\": {\n      \"categoryLines\": false,\n      \"style\": {\n        \"color\": \"#eee\"\n      }\n    },\n    \"categoryAxes\": [\n      {\n        \"id\": \"CategoryAxis-1\",\n        \"type\": \"category\",\n        \"position\": \"bottom\",\n        \"show\": true,\n        \"style\": {},\n        \"scale\": {\n          \"type\": \"linear\"\n        },\n        \"labels\": {\n          \"show\": true,\n          \"truncate\": 100\n        },\n        \"title\": {}\n      }\n    ],\n    \"valueAxes\": [\n      {\n        \"id\": \"ValueAxis-1\",\n        \"name\": \"LeftAxis-1\",\n        \"type\": \"value\",\n        \"position\": \"left\",\n        \"show\": true,\n        \"style\": {},\n        \"scale\": {\n          \"type\": \"linear\",\n          \"mode\": \"normal\"\n        },\n        \"labels\": {\n          \"show\": true,\n          \"rotate\": 0,\n          \"filter\": false,\n          \"truncate\": 100\n        },\n        \"title\": {\n          \"text\": \"Count\"\n        }\n      }\n    ],\n    \"seriesParams\": [\n      {\n        \"show\": \"true\",\n        \"type\": \"line\",\n        \"mode\": \"normal\",\n        \"data\": {\n          \"label\": \"Count\",\n          \"id\": \"1\"\n        },\n        \"valueAxis\": \"ValueAxis-1\",\n        \"drawLinesBetweenPoints\": true,\n        \"showCircles\": true\n      }\n    ],\n    \"addTooltip\": true,\n    \"addLegend\": true,\n    \"legendPosition\": \"right\",\n    \"times\": [],\n    \"addTimeMarker\": false\n  },\n  \"aggs\": [\n    {\n      \"id\": \"1\",\n      \"enabled\": true,\n      \"type\": \"count\",\n      \"schema\": \"metric\",\n      \"params\": {}\n    },\n    {\n      \"id\": \"2\",\n      \"enabled\": true,\n      \"type\": \"terms\",\n      \"schema\": \"group\",\n      \"params\": {\n        \"field\": \"backend\",\n        \"otherBucket\": false,\n        \"otherBucketLabel\": \"Other\",\n        \"missingBucket\": false,\n        \"missingBucketLabel\": \"Missing\",\n        \"size\": 5,\n        \"order\": \"desc\",\n        \"orderBy\": \"1\"\n      }\n    },\n    {\n      \"id\": \"3\",\n      \"enabled\": true,\n      \"type\": \"date_histogram\",\n      \"schema\": \"segment\",\n      \"params\": {\n        \"field\": \"@timestamp\",\n        \"interval\": \"auto\",\n        \"customInterval\": \"2h\",\n        \"min_doc_count\": 1,\n        \"extended_bounds\": {},\n        \"customLabel\": \"time\"\n      }\n    }\n  ]\n}",
        "description": "",
        "title": "web: requests per backend",
        "uiStateJSON": "{}",
        "version": 1,
        "kibanaSavedObjectMeta": {
          "searchSourceJSON": "{\n  \"index\": \"da92a2d0-55fd-11e8-b43b-036ee7010221\",\n  \"filter\": [],\n  \"query\": {\n    \"query\": \"\",\n    \"language\": \"lucene\"\n  }\n}"
        }
      }
    },
    {
      "id": "1e7053a0-5615-11e8-b43b-036ee7010221",
      "type": "search",
      "updated_at": "2018-08-08T07:19:22.874Z",
      "version": 1,
      "attributes": {
        "sort": [
          "@timestamp",
          "desc"
        ],
        "hits": 0,
        "description": "",
        "title": "Default HTTP search",
        "version": 1,
        "kibanaSavedObjectMeta": {
          "searchSourceJSON": "{\"index\":\"da92a2d0-55fd-11e8-b43b-036ee7010221\",\"highlightAll\":true,\"version\":true,\"query\":{\"language\":\"lucene\",\"query\":\"\"},\"filter\":[]}"
        },
        "columns": [
          "_source"
        ]
      }
    },
    {
      "id": "da92a2d0-55fd-11e8-b43b-036ee7010221",
      "type": "index-pattern",
      "updated_at": "2018-08-11T12:25:25.052Z",
      "version": 4,
      "attributes": {
        "fields": "[{\"name\":\"@timestamp\",\"type\":\"date\",\"count\":0,\"scripted\":false,\"searchable\":true,\"aggregatable\":true,\"readFromDocValues\":true},{\"name\":\"_id\",\"type\":\"string\",\"count\":0,\"scripted\":false,\"searchable\":true,\"aggregatable\":true,\"readFromDocValues\":false},{\"name\":\"_index\",\"type\":\"string\",\"count\":0,\"scripted\":false,\"searchable\":true,\"aggregatable\":true,\"readFromDocValues\":false},{\"name\":\"_score\",\"type\":\"number\",\"count\":0,\"scripted\":false,\"searchable\":false,\"aggregatable\":false,\"readFromDocValues\":false},{\"name\":\"_source\",\"type\":\"_source\",\"count\":0,\"scripted\":false,\"searchable\":false,\"aggregatable\":false,\"readFromDocValues\":false},{\"name\":\"_type\",\"type\":\"string\",\"count\":0,\"scripted\":false,\"searchable\":true,\"aggregatable\":true,\"readFromDocValues\":false},{\"name\":\"agent\",\"type\":\"string\",\"count\":0,\"scripted\":false,\"searchable\":false,\"aggregatable\":false,\"readFromDocValues\":false},{\"name\":\"auth\",\"type\":\"string\",\"count\":0,\"scripted\":false,\"searchable\":true,\"aggregatable\":true,\"readFromDocValues\":true},{\"name\":\"backend\",\"type\":\"string\",\"count\":0,\"scripted\":false,\"searchable\":true,\"aggregatable\":true,\"readFromDocValues\":true},{\"name\":\"bytes\",\"type\":\"number\",\"count\":0,\"scripted\":false,\"searchable\":false,\"aggregatable\":true,\"readFromDocValues\":true},{\"name\":\"host\",\"type\":\"string\",\"count\":0,\"scripted\":false,\"searchable\":true,\"aggregatable\":true,\"readFromDocValues\":true},{\"name\":\"httpversion\",\"type\":\"string\",\"count\":0,\"scripted\":false,\"searchable\":false,\"aggregatable\":true,\"readFromDocValues\":true},{\"name\":\"ident\",\"type\":\"string\",\"count\":0,\"scripted\":false,\"searchable\":true,\"aggregatable\":true,\"readFromDocValues\":true},{\"name\":\"originalmsg\",\"type\":\"string\",\"count\":0,\"scripted\":false,\"searchable\":true,\"aggregatable\":false,\"readFromDocValues\":false},{\"name\":\"originalmsg.keyword\",\"type\":\"string\",\"count\":0,\"scripted\":false,\"searchable\":true,\"aggregatable\":true,\"readFromDocValues\":true},{\"name\":\"referrer\",\"type\":\"string\",\"count\":0,\"scripted\":false,\"searchable\":false,\"aggregatable\":false,\"readFromDocValues\":false},{\"name\":\"request\",\"type\":\"string\",\"count\":0,\"scripted\":false,\"searchable\":true,\"aggregatable\":false,\"readFromDocValues\":false},{\"name\":\"status\",\"type\":\"number\",\"count\":0,\"scripted\":false,\"searchable\":true,\"aggregatable\":true,\"readFromDocValues\":true},{\"name\":\"unparsed-data\",\"type\":\"string\",\"count\":0,\"scripted\":false,\"searchable\":true,\"aggregatable\":false,\"readFromDocValues\":false},{\"name\":\"unparsed-data.keyword\",\"type\":\"string\",\"count\":0,\"scripted\":false,\"searchable\":true,\"aggregatable\":true,\"readFromDocValues\":true},{\"name\":\"verb\",\"type\":\"string\",\"count\":0,\"scripted\":false,\"searchable\":true,\"aggregatable\":true,\"readFromDocValues\":true},{\"name\":\"vhost\",\"type\":\"string\",\"count\":0,\"scripted\":false,\"searchable\":true,\"aggregatable\":true,\"readFromDocValues\":true}]",
        "timeFieldName": "@timestamp",
        "title": "http-*",
        "fieldFormatMap": "{\"request_value\":{\"id\":\"string\"}}"
      }
    },
    {
      "id": "AV9wDlJSJ4s36xPImL8m",
      "type": "dashboard",
      "updated_at": "2018-08-11T12:24:43.985Z",
      "version": 2,
      "attributes": {
        "title": "web: overview",
        "hits": 0,
        "description": "",
        "panelsJSON": "[{\"panelIndex\":\"3\",\"gridData\":{\"x\":0,\"y\":0,\"w\":32,\"h\":15,\"i\":\"3\"},\"id\":\"AWBcpcqhmhRvefO8Fqke\",\"type\":\"visualization\",\"version\":\"6.3.2\"},{\"panelIndex\":\"4\",\"gridData\":{\"x\":0,\"y\":15,\"w\":24,\"h\":15,\"i\":\"4\"},\"id\":\"AWBcn9temhRvefO8Fkhj\",\"type\":\"visualization\",\"version\":\"6.3.2\"},{\"panelIndex\":\"6\",\"gridData\":{\"x\":32,\"y\":0,\"w\":16,\"h\":15,\"i\":\"6\"},\"embeddableConfig\":{\"vis\":{\"legendOpen\":true}},\"id\":\"AWBh8jIzmhRvefO8gLxW\",\"type\":\"visualization\",\"version\":\"6.3.2\"},{\"panelIndex\":\"9\",\"gridData\":{\"x\":24,\"y\":15,\"w\":24,\"h\":15,\"i\":\"9\"},\"id\":\"6ddaf180-5614-11e8-b43b-036ee7010221\",\"type\":\"visualization\",\"version\":\"6.3.2\"},{\"panelIndex\":\"10\",\"gridData\":{\"x\":0,\"y\":30,\"w\":48,\"h\":40,\"i\":\"10\"},\"id\":\"1e7053a0-5615-11e8-b43b-036ee7010221\",\"type\":\"search\",\"version\":\"6.3.2\"}]",
        "optionsJSON": "{\"darkTheme\":false,\"useMargins\":false}",
        "version": 1,
        "timeRestore": false,
        "kibanaSavedObjectMeta": {
          "searchSourceJSON": "{\"filter\":[],\"highlightAll\":true,\"version\":true,\"query\":{\"language\":\"lucene\",\"query\":{\"match_all\":{}}}}"
        }
      }
    }
  ]
}